{
    "gulp": {
        "javascript": [
            "JavaScript/*.js"
        ],
        "templates": [
            "Templates/*"
        ],
        "ssp-libraries": [
            "SuiteScript/*.Model.js"
        ]
    },
    "overrides": {
        "suitecommerce/Profile@2.0.4/JavaScript/Profile.Model.js" : "JavaScript/Profile.Model.js",
        "suitecommerce/Profile@2.0.4/JavaScript/MyAccount.Profile.js" : "JavaScript/MyAccount.Profile.js",
        "suitecommerce/Profile@2.0.4/SuiteScript/Profile.Model.js" : "SuiteScript/Profile.Model.js",
        "suitecommerce/Profile@2.0.4/JavaScript/Profile.Information.View.js" : "JavaScript/Profile.Information.View.js",
        "suitecommerce/Profile@2.0.4/Templates/profile_information.tpl" : "Templates/profile_information.tpl"
    }
}
